<svg width="56" height="56" viewBox="0 0 56 56" fill="none" xmlns="http://www.w3.org/2000/svg">
<path opacity="0.9" fill-rule="evenodd" clip-rule="evenodd" d="M0 28C0 12.544 12.544 0 28 0C43.456 0 56 12.544 56 28C56 43.456 43.456 56 28 56C12.544 56 0 43.456 0 28ZM39.2 28L22.4 15.4V40.6L39.2 28Z" fill="white"/>
</svg>
