<svg width="25" height="24" viewBox="0 0 25 24" fill="none" xmlns="http://www.w3.org/2000/svg">
<path d="M11.9793 19.606C12.299 19.411 12.701 19.411 13.0207 19.606L18.1951 22.7619C18.9512 23.2231 19.8894 22.5462 19.6902 21.6833L18.3096 15.7031C18.2267 15.3441 18.348 14.9685 18.6253 14.7258L23.2317 10.6933C23.8951 10.1125 23.5369 9.01983 22.6584 8.94451L16.6153 8.42641C16.2447 8.39464 15.9224 8.15983 15.7785 7.81684L13.4222 2.19871C13.0792 1.38108 11.9208 1.38108 11.5778 2.19871L9.22149 7.81684C9.07764 8.15983 8.75531 8.39464 8.38474 8.42641L2.34158 8.94451C1.46312 9.01983 1.10492 10.1125 1.76831 10.6933L6.37469 14.7258C6.65196 14.9685 6.77327 15.3441 6.69038 15.7031L5.30983 21.6833C5.11061 22.5462 6.04877 23.2231 6.80491 22.7619L11.9793 19.606Z" fill="#F3BC2A"/>
</svg>
