<svg width="38" height="40" viewBox="0 0 38 40" fill="none" xmlns="http://www.w3.org/2000/svg">
<path d="M23.7142 14.716C21.4237 12.6601 18.884 12.1064 16.1847 13.3842C13.4771 14.6678 12.2154 17.0446 12.183 20.1796C11.8391 19.907 11.5088 19.6259 11.1595 19.3732C10.637 18.9983 10.1225 18.5951 9.55939 18.2969C8.4114 17.6892 7.23364 17.1497 6.06941 16.5732C4.48281 15.7895 2.9991 14.8296 1.67783 13.6029C1.64534 13.5716 1.61827 13.5347 1.58307 13.512C1.29066 13.336 1.2311 13.1457 1.37459 12.7794C1.82404 11.6321 2.34117 10.5246 2.96119 9.47112C3.81676 8.0172 4.84562 6.71377 6.02067 5.53246C7.10368 4.44201 8.30039 3.50491 9.59458 2.724C10.9646 1.89765 12.4131 1.25587 13.9428 0.804361C14.395 0.670895 14.6712 0.883873 14.9554 1.09117C15.8327 1.73294 16.7316 2.36336 17.5303 3.10736C18.5185 4.02458 19.4716 4.99576 20.3326 6.0436C21.199 7.10281 21.9164 8.29833 22.4877 9.56767C23.0834 10.8825 23.4543 12.2796 23.6438 13.7222C23.6844 14.0288 23.6899 14.3412 23.7142 14.716Z" fill="#1EBE74"/>
<path d="M30.1742 30.2945C30.0361 30.499 29.898 30.7035 29.7545 30.9051C28.8421 32.1943 27.7835 33.3472 26.6165 34.378C25.3305 35.5111 24.0038 36.5901 22.6961 37.6919C21.9298 38.3366 21.169 38.984 20.4028 39.6286C20.3405 39.6826 20.262 39.7451 20.1862 39.7507C19.0139 39.8444 17.8442 39.8274 16.6827 39.6116C15.9246 39.4696 15.1665 39.3134 14.4057 39.1799C14.1593 39.1374 14.1024 39.0181 14.1674 38.7881C14.4734 37.6664 14.9066 36.6043 15.4508 35.5849C16.2089 34.1679 17.1538 32.9014 18.2449 31.7683C19.0193 30.9647 19.8559 30.2207 20.7142 29.5193C21.6049 28.7952 22.5526 28.1506 23.4812 27.4832C24.502 26.7478 25.5362 26.0407 26.5488 25.2938C27.7401 24.4164 28.9369 23.5446 30.0848 22.6075C31.2843 21.6278 32.4431 20.5884 33.5965 19.552C34.6524 18.6063 35.5703 17.5187 36.3988 16.3516C36.7101 15.9115 36.9673 15.4316 37.2814 14.9204C37.3735 15.335 37.4845 15.7127 37.5359 16.1017C37.6767 17.1325 37.8581 18.1662 37.9041 19.2055C37.9447 20.1256 37.896 21.0655 37.7606 21.9771C37.6036 23.0135 37.3572 24.0415 37.054 25.0411C36.7805 25.947 36.4231 26.8358 36.017 27.6877C35.5838 28.5964 35.11 29.4994 34.5414 30.3201C33.7833 31.4191 32.9494 32.4641 32.0938 33.4807C31.1327 34.6279 30.0009 35.5906 28.7907 36.434C27.9784 36.9991 27.1201 37.4903 26.2591 37.9702C25.7014 38.2798 25.1003 38.5069 24.5209 38.771C24.5047 38.7455 24.4857 38.7171 24.4695 38.6915C24.6698 38.5069 24.881 38.3337 25.0705 38.1378C26.0046 37.1751 26.9766 36.2465 27.8512 35.2271C28.8475 34.0685 29.6381 32.7509 30.1092 31.2515C30.2013 30.959 30.2311 30.6467 30.2906 30.3428C30.2527 30.3286 30.2148 30.3116 30.1742 30.2945Z" fill="#1EBE74"/>
<path d="M0.419009 15.6616C0.762862 15.9853 1.05257 16.2693 1.35851 16.5391C2.27907 17.3512 3.28626 18.0214 4.37738 18.5496C5.69052 19.1828 7.03345 19.7508 8.32222 20.4295C9.41605 21.0059 10.3826 21.8124 11.2653 22.7041C12.0748 23.5219 12.7977 24.4221 13.3338 25.4728C13.7562 26.2991 14.1217 27.1425 14.2517 28.0768C14.3491 28.7668 14.4872 29.4597 14.4764 30.1498C14.4628 30.979 14.36 31.8138 14.2083 32.6288C13.9917 33.8045 13.5802 34.9261 13.1362 36.0308C13.1118 36.0876 13.0685 36.1358 13.0143 36.2182C12.5107 30.9676 9.6868 27.4237 5.67157 24.7345C5.62554 24.7685 5.57952 24.7998 5.53349 24.8338C7.33127 26.5547 8.66607 28.622 9.65161 30.9278C10.6317 33.2195 11.2409 35.6275 11.62 38.1861C11.0406 37.8965 10.4882 37.6551 9.96568 37.3541C8.86914 36.7208 7.82404 36.0024 6.86288 35.1533C5.47392 33.9266 4.26367 32.538 3.24835 30.9534C2.39278 29.6187 1.73756 28.1875 1.16357 26.7052C1.07152 26.4695 1.00112 26.2509 0.919898 26.0152C0.86304 25.8533 0.81972 25.6659 0.784522 25.4927C0.643732 24.8253 0.462329 24.1694 0.345906 23.4963C0.237606 22.8801 0.186163 22.2497 0.121183 21.625C0.0697405 21.1309 -0.0141922 20.6339 0.00205286 20.1427C0.0318354 19.2084 0.110353 18.2741 0.194286 17.3427C0.243021 16.806 0.335076 16.275 0.419009 15.6616Z" fill="#30CB1B"/>
<path d="M24.5434 23.6043C26.2654 19.3248 26.4847 14.929 25.3421 10.4962C24.1806 5.98393 21.3567 2.72395 17.7773 0.10575C17.7801 0.0745137 17.7828 0.043277 17.7855 0.00920062C18.4705 0.00920062 19.1555 -0.0163567 19.8378 0.0177197C20.4713 0.0489564 21.1049 0.117109 21.7303 0.219338C22.3205 0.315888 22.9108 0.446514 23.4848 0.616896C24.3647 0.875309 25.2609 1.111 26.1002 1.47733C27.1913 1.95156 28.2364 2.53369 29.2355 3.21238C30.7084 4.21196 32.0351 5.39611 33.1641 6.7904C33.9547 7.76442 34.6045 8.86622 35.3003 9.91975C35.4871 10.2037 35.5873 10.553 35.7796 10.8341C36.0232 11.1919 35.988 11.5327 35.8581 11.9104C35.4736 13.0207 34.8509 13.9862 34.1984 14.9347C33.3428 16.1784 32.3681 17.3172 31.2878 18.3451C30.3537 19.2368 29.3763 20.0802 28.3772 20.8924C27.5135 21.5966 26.6011 22.2327 25.6968 22.8801C25.3259 23.1528 24.9197 23.3742 24.5434 23.6043Z" fill="#30CB1B"/>
<path d="M19.1362 15.4741C21.6569 15.5366 23.5007 17.5727 23.4899 20.0773C23.4791 22.7154 21.5432 24.6464 19.1173 24.6606C16.7374 24.6776 14.6174 22.6131 14.7501 19.7876C14.8584 17.4875 16.6751 15.4912 19.1362 15.4741Z" fill="white"/>
</svg>
